hw4
…
Rows: 214 Columns: 11
── Column specification ────────────────────────────────────────────────────────
Delimiter: ","
dbl (11): Id, RI, Na, Mg, Al, Si, K, Ca, Ba, Fe, X11

ℹ Use `spec()` to retrieve the full column specification for this data.
ℹ Specify the column types or set `show_col_types = FALSE` to quiet this message.

print(glass_data)

# A tibble: 38 × 12
   glass_type_c    Id    RI    Na    Mg    Al    Si     K    Ca    Ba    Fe
   <fct>        <dbl> <dbl> <dbl> <dbl> <dbl> <dbl> <dbl> <dbl> <dbl> <dbl>
 1 tableware      177  1.52  14    2.39  1.56  72.4  0     9.57  0        0
 2 tableware      178  1.52  13.8  2.41  1.19  72.8  0     9.77  0        0
 3 tableware      179  1.52  14.5  2.24  1.62  72.4  0     9.26  0        0
 4 tableware      180  1.52  14.1  2.19  1.66  72.7  0     9.32  0        0
 5 tableware      181  1.51  14.4  1.74  1.54  74.6  0     7.59  0        0
 6 tableware      182  1.52  15.0  0.78  1.74  72.5  0     9.95  0        0
 7 tableware      183  1.52  14.2  0     2.09  72.7  0    10.9   0        0
 8 tableware      184  1.52  14.6  0     0.56  73.5  0    11.2   0        0
 9 tableware      185  1.51  17.4  0     0.34  75.4  0     6.65  0        0
10 headlamp       186  1.51  13.7  3.2   1.81  72.8  1.76  5.43  1.19     0
# ℹ 28 more rows
# ℹ 1 more variable: glass_type_n <dbl>
…
yeast_data

# A tibble: 1,484 × 22
# Groups:   class [10]
   class mean_mcg mean_gvh mean_alm mean_mit mean_erl mean_pox mean_vac
   <chr>    <dbl>    <dbl>    <dbl>    <dbl>    <dbl>    <dbl>    <dbl>
 1 MIT      0.521    0.533    0.517    0.404    0.5    0.00885    0.502
 2 MIT      0.521    0.533    0.517    0.404    0.5    0.00885    0.502
 3 MIT      0.521    0.533    0.517    0.404    0.5    0.00885    0.502
 4 NUC      0.452    0.456    0.529    0.228    0.503  0          0.494
 5 MIT      0.521    0.533    0.517    0.404    0.5    0.00885    0.502
 6 CYT      0.481    0.470    0.535    0.227    0.504  0.00108    0.499
 7 MIT      0.521    0.533    0.517    0.404    0.5    0.00885    0.502
 8 NUC      0.452    0.456    0.529    0.228    0.503  0          0.494
 9 MIT      0.521    0.533    0.517    0.404    0.5    0.00885    0.502
10 CYT      0.481    0.470    0.535    0.227    0.504  0.00108    0.499
# ℹ 1,474 more rows
# ℹ 14 more variables: median_mcg <dbl>, median_gvh <dbl>, median_alm <dbl>,
#   median_mit <dbl>, median_erl <dbl>, median_pox <dbl>, median_vac <dbl>,
#   mcg <dbl>, gvh <dbl>, alm <dbl>, mit <dbl>, erl <dbl>, pox <dbl>, vac <dbl>
…
filter based on:

quality > 6.5

alcohol < 132

Sort descending quality

select vars that contain acid, alcohol, type, and quality

add mean and standard deviation of alcohol by quality category

tibble(read_xlsx(path = "./raw/white-wine.xlsx", sheet="white-wine"))

# A tibble: 4,898 × 12
   `fixed acidity` `volatile acidity` `citric acid` `residual sugar` chlorides
             <dbl>              <dbl>         <dbl>            <dbl>     <dbl>
 1               7               0.27          0.36             20.7     0.045
 2              63               0.3           0.34              1.6     0.049
 3              81               0.28          0.4               6.9     0.05 
 4              72               0.23          0.32              8.5     0.058
 5              72               0.23          0.32              8.5     0.058
 6              81               0.28          0.4               6.9     0.05 
 7              62               0.32          0.16              7       0.045
 8               7               0.27          0.36             20.7     0.045
 9              63               0.3           0.34              1.6     0.049
10              81               0.22          0.43              1.5     0.044
# ℹ 4,888 more rows
# ℹ 7 more variables: `free sulfur dioxide` <dbl>,
#   `total sulfur dioxide` <dbl>, density <dbl>, pH <dbl>, sulphates <dbl>,
#   alcohol <dbl>, quality <dbl>

col_names <- read_xlsx(path = "./raw/white-wine.xlsx", sheet="variables")

white_wine <- tibble(read_xlsx(path = "./raw/white-wine.xlsx", sheet="white-wine")) |>
                     setNames(col_names$Variables) |>
                     mutate(type = "white") |>
                     select(quality, alcohol, type, everything())

white_wine

# A tibble: 4,898 × 13
   quality alcohol type  fixed_acidity volatile_acidity citric_acid
     <dbl>   <dbl> <chr>         <dbl>            <dbl>       <dbl>
 1       6      88 white             7             0.27        0.36
 2       6      95 white            63             0.3         0.34
 3       6     101 white            81             0.28        0.4 
 4       6      99 white            72             0.23        0.32
 5       6      99 white            72             0.23        0.32
 6       6     101 white            81             0.28        0.4 
 7       6      96 white            62             0.32        0.16
 8       6      88 white             7             0.27        0.36
 9       6      95 white            63             0.3         0.34
10       6      11 white            81             0.22        0.43
# ℹ 4,888 more rows
# ℹ 7 more variables: residual_sugar <dbl>, chlorides <dbl>,
#   free_sulfur_dioxide <dbl>, total_sulfur_dioxide <dbl>, density <dbl>,
#   pH <dbl>, sulphates <dbl>
…
Rows: 1599 Columns: 12
── Column specification ────────────────────────────────────────────────────────
Delimiter: ";"
dbl (12): fixed acidity, volatile acidity, citric acid, residual sugar, chlo...

ℹ Use `spec()` to retrieve the full column specification for this data.
ℹ Specify the column types or set `show_col_types = FALSE` to quiet this message.

red_wine

# A tibble: 1,599 × 13
   quality alcohol type  fixed_acidity volatile_acidity citric_acid
     <dbl>   <dbl> <chr>         <dbl>            <dbl>       <dbl>
 1       5     9.4 red             7.4             0.7         0   
 2       5     9.8 red             7.8             0.88        0   
 3       5     9.8 red             7.8             0.76        0.04
 4       6     9.8 red            11.2             0.28        0.56
 5       5     9.4 red             7.4             0.7         0   
 6       5     9.4 red             7.4             0.66        0   
 7       5     9.4 red             7.9             0.6         0.06
 8       7    10   red             7.3             0.65        0   
 9       7     9.5 red             7.8             0.58        0.02
10       5    10.5 red             7.5             0.5         0.36
# ℹ 1,589 more rows
# ℹ 7 more variables: residual_sugar <dbl>, chlorides <dbl>,
#   free_sulfur_dioxide <dbl>, total_sulfur_dioxide <dbl>, density <dbl>,
#   pH <dbl>, sulphates <dbl>

combined_wine <- bind_rows(white_wine, red_wine) |>
                filter(quality > 6.5 & alcohol <132) |>
                arrange(desc(quality)) |>
                select(contains("acid"), alcohol, type, quality) |>
                group_by(quality) |>
                mutate(
                    mean_alcohol = format(mean(alcohol, na.rm = TRUE),nsmall=2),
                    sd_alcohol = sd(alcohol, na.rm = TRUE)
                ) |>
                select(quality, alcohol, type, mean_alcohol, sd_alcohol, everything())
options(digits = 7)
print(combined_wine)

# A tibble: 1,206 × 8
# Groups:   quality [3]
   quality alcohol type  mean_alcohol sd_alcohol fixed_acidity volatile_acidity
     <dbl>   <dbl> <chr> <chr>             <dbl>         <dbl>            <dbl>
 1       9     104 white 121.80             10.1            91             0.27
 2       9     124 white 121.80             10.1            66             0.36
 3       9     125 white 121.80             10.1            74             0.24
 4       9     127 white 121.80             10.1            69             0.36
 5       9     129 white 121.80             10.1            71             0.26
 6       8     128 white 94.1288            42.8            62             0.66
 7       8     128 white 94.1288            42.8            62             0.66
 8       8     105 white 94.1288            42.8            68             0.26
 9       8     107 white 94.1288            42.8            67             0.23
10       8     107 white 94.1288            42.8            67             0.23
# ℹ 1,196 more rows
# ℹ 1 more variable: citric_acid <dbl>
